/*

    Author : Ken Williams
    Date : December 1992 - February 1993
    AI Methods Project (C420)
    RUBIK's CUBE Program
    Lecturer : Dr.Gerard McKee

    PROLOG program to solve a Rubik's cube puzzle
    starting from any user-given state and resulting in
    displaying a path to the 'goal state' where for each
    of the six faces of the cube, all 9 smaller cubes
    are the same colour.

    GENERAL NOTES.

    This version of the program is purely to solve the
    cube and involves no graphics other than displaying
    prolog lists. In short there are no POP-11 language
    graphics routines used here. The graphic version of
    this program is 'under development'.


    On a SUN 4 workstation, from start to finish the program 
    takes on average around 10 minutes to produce a path.
    At worst this has been 30 minutes, at best it has been
    just over 2 minutes - it all depends on how far the 'initial 
    state' is from the 'goal state'. 

*/

/* ***********************  DATA STRUCTURES. ****************************

   Each cube state is stored in the form;

              [[Op],[Fs],[Ls],[Rs],[Us],[Ds],[Bs]],

   where [Op] stores the last Operation that brought the cube into this
   current state,
   [Fs] contains the colours of the 9 small squares on the Front face,
   [Ls]   "       "    "     "   "  "   "      "     "  "  Left  face,
   [Rs]   "       "    "     "   "  "   "      "     "  "  Right face,
   [Us]   "       "    "     "   "  "   "      "     "  "  Upper  face,
   [Ds]   "       "    "     "   "  "   "      "     "  "  Downward face,
   [Bs]   "       "    "     "   "  "   "      "     "  "  Back  face,

   for each of the six faces of the cube.

***************************************************************************/

/*************************  THE MOVES *********************************

 From any given state of the cube it is possible to make one of
 eighteen different moves, these are detailed below.

 For each of the six faces, the face can be rotated 90 degrees
 clockwise or 90 degrees anti-clockwise. These are cunningly known
 as 'the face moves',

                   6 + 6 = 12.

 It is also possible to move the three middle sections in one of
 two directions, these are known as the 'slice moves',

                   (2 x 3) + 12 = 18 possible moves.

 So when the program outputs a move like [Front 1] it means
 "viewing the front face of the cube from the outside, rotate it
  90 degrees clockwise."
  [Front -1] means rotate 90 degrees anti-clockwise.
  A move like [Back 1] means
 "viewing the back face of the cube from the outside, rotate it
  90 degrees clockwise."
                   (you have to think about this one).


  Moves like Pitch, Yaw and Roll, (sailing terminology apparently),
  are like this;

  [Pitch 1] - "viewing the front face of the cube from the outside
               push the vertical mid-section of the face upwards"
  [Pitch -1] - as above, except that it moves downwards.
  [Yaw 1] - "viewing the front face of the cube from the outside
             push the horizontal mid-section to the left"
  [Yaw -1] - as above but to the right.
  [Roll 1] - "viewing the upper face of the from the outside
              push the horizontal mid-section of the face to
              the right"
  [Roll -1] - as above, but push to the left.


 **********************************************************************/

:-library(useful).
:-library(simplepop).

/**********************************************************************/
/* ------------------ The GOAL and SUBGOAL STATES. --------------------*/
/**********************************************************************

  These are used to break down the overall problem into smaller ones.
  During the searches used in the program they have the effect of
  breaking the 'one big search space' down into 'several smaller search 
  spaces' and therefore you don't have to wait 4 (or so) days to find 
  a solution.

***********************************************************************/


/* subgoal1 : correctly position and align 1 corner
   on one face (namely the white face).  */

subgoal1([[_],[_,_,w,_,w,_,_,_,_],
              [_,_,_,_,_,_,_,_,_],
              [g,_,_,_,g,_,_,_,_],
              [_,_,_,_,r,_,_,_,r],
              [_,_,_,_,_,_,_,_,_],
              [_,_,_,_,_,_,_,_,_]]).

/* subgoal2 : correctly position and align a second corner
   on one face (the white face).  */

subgoal2([[_],[_,_,w,_,w,_,_,_,w],
              [_,_,_,_,_,_,_,_,_],
              [g,_,_,_,g,_,g,_,_],
              [_,_,_,_,r,_,_,_,r],
              [_,_,o,_,o,_,_,_,_],
              [_,_,_,_,_,_,_,_,_]]).


/* subgoal3 : correctly position and align a third corner
   on one face (the white face).  */

subgoal3([[_],[_,_,w,_,w,_,w,_,w],
              [_,_,_,_,b,_,_,_,b],
              [g,_,_,_,g,_,g,_,_],
              [_,_,_,_,r,_,_,_,r],
              [o,_,o,_,o,_,_,_,_],
              [_,_,_,_,_,_,_,_,_]]).


/* subgoal4a : Move 4th corner to its final location */

subgoal4a([[_],[w,_,w,_,w,_,w,_,w],
               [_,_,b,_,b,_,_,_,b],
               [g,_,_,_,g,_,g,_,_],
               [_,_,_,_,r,_,r,_,r],
               [o,_,o,_,o,_,_,_,_],
               [_,_,_,_,y,_,_,_,_]]).


/* subgoal4b : Move 4th corner to a more accessible location */

subgoal4b([[_],[_,_,w,_,w,_,w,_,w],
               [b,_,_,_,b,_,_,_,b],
               [g,_,_,_,g,_,g,_,_],
               [w,_,_,_,r,_,_,_,r],
               [o,_,o,_,o,_,_,_,_],
               [_,_,_,_,y,_,_,_,_]]).


/* subgoal5 : correctly position and align the remaining
   4 corners.   */

subgoal5([[_],[w,_,w,_,w,_,w,_,w],
              [b,_,b,_,b,_,b,_,b],
              [g,_,g,_,g,_,g,_,g],
              [r,_,r,_,r,_,r,_,r],
              [o,_,o,_,o,_,o,_,o],
              [y,_,y,_,y,_,y,_,y]]).


/* subgoal5d : position one yellow square . This may seem trivial
   but is actually quite important. */

subgoal5d([[_],[w,_,w,_,w,_,w,_,w],
               [_,_,b,_,b,_,_,_,b],
               [g,_,_,_,g,_,g,_,_],
               [_,_,y,_,r,_,r,_,r],
               [o,_,o,_,o,_,_,_,_],
               [_,_,_,_,y,_,_,_,_]]).


/* final_goal : the cube should now be completed,
          each and every face displays nine small-cubes,
          each and every small-cube on a face displays
          the same colour as the others.                 */


final_goal([[_], [w,w,w,w,w,w,w,w,w],
                 [b,b,b,b,b,b,b,b,b],
                 [g,g,g,g,g,g,g,g,g],
                 [r,r,r,r,r,r,r,r,r],
                 [o,o,o,o,o,o,o,o,o],
                 [y,y,y,y,y,y,y,y,y]]).


/**********************************************************************/
/* ------------------ DEMONSTRATION CUBES. ---------------------------*/
/**********************************************************************/



/* democube1 */

democube1([[_],[g,b,b,r,w,g,w,w,r],        /*  democube1 takes  */
               [g,y,r,w,b,y,o,r,r],        /*  about 5 mins to solve */
               [r,y,o,o,g,o,g,r,o],
               [w,o,g,b,r,g,y,o,y],
               [b,b,w,g,o,b,b,r,b],
               [y,y,o,w,y,g,y,w,w]]).



/* democube2: correctly position and align 8 edge pieces
   such that two opposing faces of the cube are now complete. */


democube2([[_],[g,r,o,g,w,y,g,b,r],      /* democube2 takes about */
               [y,r,r,b,b,r,y,g,o],      /* 7 minutes to be solved */
               [w,w,g,o,g,b,w,g,g],
               [b,g,o,y,r,r,y,b,b],
               [y,o,b,w,o,o,b,w,r],
               [w,y,r,w,y,y,w,o,o]]).




democube3([[_],[w,r,b,o,w,w,o,g,g],        /* democube3 takes about */
               [b,y,r,b,b,y,o,b,w],       /* 2 minutes to be solved */
               [r,r,g,g,g,r,o,y,o],
               [w,b,r,r,r,w,g,g,y],
               [b,o,w,o,o,g,g,w,b],
               [y,w,r,b,y,y,y,o,y]]).


/**********************************************************************/


/*  MAXDEPTH is used to control the level of ply searched by each call
    of the Depth-First Iterative Deepening Routine 'solve'. To be
    effective this level is instantiated to 1 ply but is incremented
    by one with each recursive call to 'solve'.
*/


maxdepth(1).


/**********************************************************************/
/* ------------------------- MAIN PROCEDURE ------------------------- */
/**********************************************************************/


/* TO RUN THE PROGRAM.

   Firstly you have to load the program, type;
   ?-[rubik].

   Now,
   if you have a cube you wish to solve you may start the program
   by typing ' ?-rubik.' , then following the instructions to enter
   its current state type in the details. Alternatively, if you just 
   wish to see the program running on a pre-defined cube, type '?-demo'.

*/


rubik:-
        opening_message,
        get_initial_state(Cube1),
        main_procedure(Cube1),!.

demo:-                              /*****************************/
        democube1(Cube1),           /* INSTANTIATE DEMOCUBE HERE */
        main_procedure(Cube1),!.    /*****************************/



/* The main procedure firstly instantiates the Maxdepth variable to a
   value of one. Then initiates a depth-first iterative deepening search
   with the aim of finding a solution path from the cube's initial
   state to the goal state of Subgoal1. The solution is then displayed
   for the user.
*/



main_procedure(Cube1):-

        maxdepth(Maxdepth),


/* subgoal1 : correctly position and align 1 corner
   on one face (namely the white face).  */


        subgoal1(SubGoal1),
        nl,write('STAGE ONE : Searching.'),nl,


    /* The solve procedure initiates the DFID (depth-first iterative
       deepening search) the parameters are as follows.

       solve(Cube1,Sol1,Maxdepth,SubGoal1,['Face moves']),1,

       where;
           Cube1 is the start node of the search,
           Sol1 is an uninstantiated variable which will
                contain the solution path from the start node to the
                goal node when one has been found.
           Maxdepth is the initial number of ply the search will go
                to in the search tree. Here, this value is only 1, but
                in later recursive calls (in solve) its value is
                incremented by one with each call.
           SubGoal1 is the goal-state this search is looking for.
           'Face moves' specifies what possible moves need to be
                considered by the search, in order to reach this goal.
                For this search to succeeed, only a subset of all 18
                possible moves need be considered, namely the face moves,
                the slice moves need not be considered and indeed, their
                inclusion in the search will actually increase the length
                of time it takes to find a solution path.

     Searches for stages 2, 3 and 4 follow similar lines to Stage 1.

     */


        solve(Cube1,Sol1,Maxdepth,SubGoal1,['Face moves']),!,
        count(Sol1,N1),!,
        ((N1 =< 2, unchanged(Cube1,Cube2)) ;
         (N1 > 2,  tidy_solution(Sol1,Cube2))),


/* subgoal2 : correctly position and align a second corner
   on one face (the white face).  */


        subgoal2(SubGoal2),
        nl,write('STAGE TWO : Searching.'),nl,
        solve(Cube2,Sol2,Maxdepth,SubGoal2,['Face moves']),!,
        count(Sol2,N2),!,
        ((N2 =< 2, unchanged(Cube2,Cube3))
        ;
        (N2 > 2, tidy_solution(Sol2,Cube3))),


/* subgoal3 : correctly position and align a third corner
   on one face (the white face).  */


        subgoal3(SubGoal3),
        nl,write('STAGE THREE : Searching.'),nl,
        solve(Cube3,Sol3,Maxdepth,SubGoal3,['Face moves']),!,
        count(Sol3,N3),!,
        ((N3 =< 2, unchanged(Cube3,Cube4))
        ;
        (N3 > 2, tidy_solution(Sol3,Cube4))),


     /* The first instruction in Stage 4 asks if the current cube
        already matches the overall subgoal of stage 4. If this is true
        then the cube is passed 'unchanged' to Cube5 and stage 4 is
        passed over. If not true, then depending on the location
        of the fourth and final white corner square one of two searches
        may be initiated, this explains why two subgoals are necessary
        for this stage.
     */



/* subgoal4a : Move 4th corner to its final location
   subgoal4b : Move 4th corner to a more accessible location
                                                   (if necessary)  */


        nl,write('STAGE FOUR : Searching.'),nl,
        subgoal4a(SubGoal4a),

     (   (matching_lists(SubGoal4a,Cube4),unchanged(Cube4,Cube5))
         ;
        ( odd_corner(Cube4,TempCube4),
        ((cube2lists(TempCube4,_,_,_,_,_,_,Bs4),

                        /* last white corner is on Back face */

         ((element(1,Bs4,Corner1),(Corner1 = w)) ;
          (element(3,Bs4,Corner2),(Corner2 = w)) ;
          (element(7,Bs4,Corner3),(Corner3 = w)) ;
          (element(9,Bs4,Corner4),(Corner4 = w))),
         subgoal4b(SubGoal4b),
         solve(TempCube4,Sol4b,Maxdepth,SubGoal4b,['Face moves']),!,
         count(Sol4b,N4b),!,
         ((N4b =< 2, unchanged(TempCube4,Cube4b)) ;
          (N4b > 2, tidy_solution(Sol4b,Cube4b))),
         solve(Cube4b,Sol4a,Maxdepth,SubGoal4a,['Face moves']),!,
         count(Sol4a,N4a),!,
         ((N4a =< 2, unchanged(Cube4b,Cube5)) ;
         (N4a > 2, tidy_solution(Sol4a,Cube5))) )
         ;
                  /* last white corner is on Left,Right,Up or Down face */

         (solve(TempCube4,Sol4,Maxdepth,SubGoal4a,['Face moves']),!,
          count(Sol4,N4),!,
         ((N4 =< 2, unchanged(TempCube4,Cube5)) ;
          (N4 > 2, tidy_solution (Sol4,Cube5)))))) ),


/* By the end of stage 4, all four white corners are in their
   final positions.

   Stages 5, 6, 7, 8 and 9 now concentrate less on searching for
   a solution, rather, pattern-matching routines is used to increase
   the speed of the program.
*/


        nl,write('STAGE FIVE : Searching.'),nl,
        subgoal5(SubGoal5),
        ((matching_lists(Cube5,SubGoal5),unchanged(Cube5,Cube6))
        ;
        (reposition_corners(Cube5,Cube5b),!,
        solve_corners_pattern(Cube5b,Cube5c),!,
        reposition_corners(Cube5c,Cube5d),!, nl,
        cube2lists(Cube5d,_,_,_,_,_,_,Bs5d),
        corners_done(y,Bs5d,OKCorners),!,
        (((OKCorners = 4),unchanged(Cube5d,Cube5f));
         ((OKCorners = 2),position_2_corners(Cube5d,Cube5f));
         ((OKCorners = 1),position_1_corner(Cube5d,Cube5e),
                          position_2_corners(Cube5e,Cube5f));
         ((OKCorners = 0),position_2_corners(Cube5d,Cube5e),
                          position_2_corners(Cube5e,Cube5f)))),
        reposition_corners(Cube5f,Cube6)),!,

/* By the end of stage 5, all 8 corners are in their final positions */


        nl,write('STAGE SIX : Searching.'),nl,
        final_goal(FinalGoal),
         ((matching_lists(FinalGoal,Cube6),
          unchanged(Cube7,Cube8));

       (do_two_edges(w,r,y,Cube6,Cube6a),
        roll_1_whole_cube(Cube6a,Cube6b),
        do_two_edges(w,g,y,Cube6b,Cube6c),
        roll_1_whole_cube(Cube6c,Cube6d),
        do_two_edges(w,o,y,Cube6d,Cube6e),
        roll_1_whole_cube(Cube6e,Cube6f),
        do_two_edges(w,b,y,Cube6f,Cube6g),
        roll_1_whole_cube(Cube6g,Cube7))),!,

/* By the end of stage 6 two opposing faces (white and yellow)
   should now be complete */

         final_goal(FinalGoal),
         nl,write('STAGE SEVEN : Searching.'),nl,
         ((matching_lists(FinalGoal,Cube7),
          unchanged(Cube7,Cube8))
         ;
         (reposition_edges(Cube7,Cube7a),
          solve_edges_pattern(Cube7a,Cube7b),
          reposition_edges(Cube7b,Cube8))),!,

/* By the end of stage 7,
   The remaining four edges are now in position but not necessarily
   aligned, the 6 centre-squares may be out of position but this is OK */



        nl,write('STAGE EIGHT : Searching.'),nl,
        ((matching_lists(FinalGoal,Cube8),
          unchanged(Cube8,Cube9));
         (edges_done(Cube8,OKEdges,WhichEdges),
         (((OKEdges = 4), unchanged(Cube8,Cube9));
          ((OKEdges = 2), position_2_edges(Cube8,Cube9,WhichEdges));
          ((OKEdges = 0), position_2_edges(Cube8,Cube8a,WhichEdges),
                          takehead(WhichEdges,_,TempEdges),
                          takehead(TempEdges,_,RemainingEdges),
                          position_2_edges(Cube8a,Cube9,RemainingEdges))))),!,

/* By the end of stage 8,
   All edge-pieces are now positioned AND aligned, only the centre-squares
   may be out of position in one of two patterns, i.e. 4 centres out of
   position, or all 6 centres out of position.  */


        nl,write('STAGE NINE - FINAL STAGE : Searching.'),nl,
       ((matching_lists(FinalGoal,Cube9),
         unchanged(Cube9,FinalCube))  ;

      (centres_done(Cube9,OKCentres),
    (((OKCentres = 2),position_4_centres(Cube9,FinalCube)) ;
    ((OKCentres = 0),solve(Cube9,Sol9,Maxdepth,FinalGoal,['Slice moves']),!,
                     count(Sol9,N9),!,
                    ((N9 =< 2, unchanged(Cube9,FinalCube));
                     (N9 > 2, tidy_solution(Sol9,FinalCube))))) )),!,


        nl,write('THE CUBE IS NOW COMPLETE.'),nl,!.

/* In stage 9 depending on the state of the cube, a pattern-matching
   routine is called or a final DFID search which uses the ['Slice moves']
   only option. This stage will complete the cube.
*/


/**********************************************************************/
/*---------------------- OUTPUT PROCEDURES ---------------------------*/
/**********************************************************************/


/* tidy_solution takes a solution list, Sol, formats it for display to
   the user, passes the final list to the procedure 'showsol', then takes
   the last node of the list as the new state of the cube which is
   returned as Newcube.
*/

tidy_solution(Sol,NewCube):-
            takehead(Sol,_,TempSol),
            reverse(TempSol,TempRevSol),
            takehead(TempRevSol,_,RevSol),
            showsol(RevSol),
            takehead(TempSol,NewCube,_),!.

/* showsol outputs to screen the moves to make and the positions
   the cube will pass through in order to reach the goal or
   subgoal.  */

showsol([]).
showsol([H|Tail]):-nl,showcube(H),
                      showsol(Tail),!.


/* showcube is used by showsol to display a state of the cube
   after the last performed operation.  */

takefirstthree([A,B,C|_],[A,B,C]).
takemidthree([_,_,_,D,E,F|_],[D,E,F]).
takeendthree([_,_,_,_,_,_,G,H,I|_],[G,H,I]).

showcube(Cube):-cube2lists(Cube,Op,Fs,Ls,Rs,Us,Ds,Bs),nl,
   write('            Perform operation '),write(Op),
   write('.'),nl,
   write('            The state of the cube after '),
   write(Op),write(' is; '),nl,nl,
   write('              Left         Front       Right'),nl,
   tab(12),takefirstthree(Ls,TopLs),write(TopLs),
   tab(4),takefirstthree(Fs,TopFs),write(TopFs),
   tab(3),takefirstthree(Rs,TopRs),write(TopRs),nl,
   tab(12),takemidthree(Ls,MidLs),write(MidLs),
   tab(4),takemidthree(Fs,MidFs),write(MidFs),
   tab(3),takemidthree(Rs,MidRs),write(MidRs),nl,
   tab(12),takeendthree(Ls,EndLs),write(EndLs),
   tab(4),takeendthree(Fs,EndFs),write(EndFs),
   tab(3),takeendthree(Rs,EndRs),write(EndRs),nl,nl,
   write('              Upper        Down        Back'),nl,
   tab(12),takefirstthree(Us,TopUs),write(TopUs),
   tab(4),takefirstthree(Ds,TopDs),write(TopDs),
   tab(3),takefirstthree(Bs,TopBs),write(TopBs),nl,
   tab(12),takemidthree(Us,MidUs),write(MidUs),
   tab(4),takemidthree(Ds,MidDs),write(MidDs),
   tab(3),takemidthree(Bs,MidBs),write(MidBs),nl,
   tab(12),takeendthree(Us,EndUs),write(EndUs),
   tab(4),takeendthree(Ds,EndDs),write(EndDs),
   tab(3),takeendthree(Bs,EndBs),write(EndBs),nl,nl,
 /*
  prompt(_,'            Press (c) to continue '), read(Dummy),nl,    */
  !.


/* Displays instructions to user on how to run the program */

opening_message:-
 write('                       RUBIK CUBE SOLVER PROGRAM'),nl,
 write('                                               by Ken Williams'),nl,
 write('              Instructions.'),nl,
 write('              Hold the cube so that the middle square'),nl,
 write('              of the front face is white...'),nl,
 write('              ...and the middle square of the upper face'),nl,
 write('              is red.'),nl,
 prompt(_,'              Press (c) to continue '), read(Dummy),nl,!.


/* reads initial state of cube from keyboard. */

get_initial_state(Cube) :-
  write('              To enter the current state of cube. Each face'),nl,
  write('              of the cube is viewed as a list of nine elements'),nl,
  write('              each element representing a square on the face'),nl,
  write('              of the cube, from top-left to bottom-right.'),nl,nl,
  write('              Colours are represented by intial letters.'),nl,
  write('              r for red; b for blue; g for green; w for white'),nl,
  write('              o for orange; and y for yellow. '), nl,nl,
  write('              A list is needed for each of the six faces'), nl,
  write('              all lists need to be enclosed within square'),nl,
  write('              brackets [ ] and be terminated by a full stop.'),nl,
  nl,
  write('Enter current state of cube;'), nl,nl,
  prompt(_,'              Starting with Front face '),read(Fs),
  prompt(_,'              enter Left face '),read(Ls),
  prompt(_,'              enter Right face '),read(Rs),
  prompt(_,'              enter Upper face '),read(Us),
  prompt(_,'              enter Downward face '),read(Ds),
  prompt(_,'              enter Back face '),read(Bs),nl,
  lists2cube(Op,Fs,Ls,Rs,Us,Ds,Bs,Cube).


/****************** CUBE PROCESSING ROUTINES ************************/
/* 1. FOR CORNERS
   These processing routines usually take the form of a pattern match
   succeeding followed by the appropriate action to take. In imperative
   language style this would appear as;

   IF <this pattern> THEN <take this action>
   ELSE
   IF <this pattern> THEN, etc
*/

odd_corner(Cube,NewCube):-
   cube2lists(Cube,_,_,Ls,_,Us,_,_),
   ( (element(7,Us,Corner1),(Corner1 = w),
      right_1(Cube,Cube1),showcube(Cube1),
      upper1(Cube1,Cube2),showcube(Cube2),
      right1(Cube2,NewCube),showcube(NewCube));

     (element(3,Ls,Corner2),(Corner2 = w),
      down1(Cube,Cube1),showcube(Cube1),
      left_1(Cube1,Cube2),showcube(Cube2),
      down_1(Cube2,NewCube),showcube(NewCube));

     (unchanged(Cube,NewCube)) ),!.


reposition_corners(Cube,NewCube):-
   cube2lists(Cube,_,Fs,Ls,Rs,Us,Ds,Bs),

 ( (element(9,Rs,SqA),((SqA=o);(SqA=y);(SqA=g)),
    element(9,Ds,SqB),((SqB=o);(SqB=y);(SqB=g)),
    element(7,Bs,SqC),((SqC=o);(SqC=y);(SqC=g)),
    unchanged(Cube,NewCube))
    ;
   (element(3,Us,SqD),((SqD=o);(SqD=y);(SqD=g)),
    element(1,Bs,SqE),((SqE=o);(SqE=y);(SqE=g)),
    element(3,Rs,SqF),((SqF=o);(SqF=y);(SqF=g)),
    back_1(Cube,NewCube),showcube(NewCube))
    ;
   (element(1,Us,SqG),((SqG=o);(SqG=y);(SqG=g)),
    element(1,Ls,SqH),((SqH=o);(SqH=y);(SqH=g)),
    element(3,Bs,SqI),((SqI=o);(SqI=y);(SqI=g)),
    back1(Cube,Cube1),showcube(Cube1),
    back1(Cube1,NewCube),showcube(NewCube))
    ;
   (element(7,Ls,SqJ),((SqJ=o);(SqJ=y);(SqJ=g)),
    element(9,Bs,SqK),((SqK=o);(SqK=y);(SqK=g)),
    element(7,Ds,SqL),((SqL=o);(SqL=y);(SqL=g)),
    back1(Cube,NewCube),showcube(NewCube)) ),!.


solve_corners_pattern(Cube,NewCube):-
   cube2lists(Cube,_,Fs,Ls,Rs,Us,Ds,Bs),

 ( (element(3,Us,Sq1),((Sq1=r);(Sq1=y);(Sq1=g)),
    element(1,Bs,Sq2),((Sq2=r);(Sq2=y);(Sq2=g)),
    element(3,Rs,Sq3),((Sq3=r);(Sq3=y);(Sq3=g)),
    element(1,Us,Sq4),((Sq4=r);(Sq4=b);(Sq4=y)),
    element(1,Ls,Sq5),((Sq5=r);(Sq5=b);(Sq5=y)),
    element(3,Bs,Sq6),((Sq6=r);(Sq6=b);(Sq6=y)),
    element(7,Ls,Sq7),((Sq7=y);(Sq7=b);(Sq7=o)),
    element(9,Bs,Sq8),((Sq8=y);(Sq8=b);(Sq8=o)),
    element(7,Ds,Sq9),((Sq9=y);(Sq9=b);(Sq9=o)),
    unchanged(Cube,NewCube))
    ;
   (element(3,Us,Sq1),((Sq1=r);(Sq1=y);(Sq1=g)),
    element(1,Bs,Sq2),((Sq2=r);(Sq2=y);(Sq2=g)),
    element(3,Rs,Sq3),((Sq3=r);(Sq3=y);(Sq3=g)),
    element(1,Us,Sq4),((Sq4=o);(Sq4=b);(Sq4=y)),
    element(1,Ls,Sq5),((Sq5=o);(Sq5=b);(Sq5=y)),
    element(3,Bs,Sq6),((Sq6=o);(Sq6=b);(Sq6=y)),
    element(7,Ls,Sq7),((Sq7=y);(Sq7=b);(Sq7=r)),
    element(9,Bs,Sq8),((Sq8=y);(Sq8=b);(Sq8=r)),
    element(7,Ds,Sq9),((Sq9=y);(Sq9=b);(Sq9=r)),
    align_corners(Cube,Cube1),
    back1(Cube1,Cube2),showcube(Cube2),
    inverse_align_corners(Cube2,NewCube))
    ;
   (element(3,Us,Sq1),((Sq1=r);(Sq1=y);(Sq1=b)),
    element(1,Bs,Sq2),((Sq2=r);(Sq2=y);(Sq2=b)),
    element(3,Rs,Sq3),((Sq3=r);(Sq3=y);(Sq3=b)),
    element(1,Us,Sq4),((Sq4=g);(Sq4=r);(Sq4=y)),
    element(1,Ls,Sq5),((Sq5=g);(Sq5=r);(Sq5=y)),
    element(3,Bs,Sq6),((Sq6=g);(Sq6=r);(Sq6=y)),
    element(7,Ls,Sq7),((Sq7=y);(Sq7=b);(Sq7=o)),
    element(9,Bs,Sq8),((Sq8=y);(Sq8=b);(Sq8=o)),
    element(7,Ds,Sq9),((Sq9=y);(Sq9=b);(Sq9=o)),
    back1(Cube,Cube1),showcube(Cube1),
    align_corners(Cube1,Cube2),
    back1(Cube2,Cube3),showcube(Cube3),
    inverse_align_corners(Cube3,NewCube))
    ;
   (element(3,Us,Sq1),((Sq1=r);(Sq1=y);(Sq1=b)),
    element(1,Bs,Sq2),((Sq2=r);(Sq2=y);(Sq2=b)),
    element(3,Rs,Sq3),((Sq3=r);(Sq3=y);(Sq3=b)),
    element(1,Us,Sq4),((Sq4=b);(Sq4=y);(Sq4=o)),
    element(1,Ls,Sq5),((Sq5=b);(Sq5=y);(Sq5=o)),
    element(3,Bs,Sq6),((Sq6=b);(Sq6=y);(Sq6=o)),
    element(7,Ls,Sq7),((Sq7=g);(Sq7=r);(Sq7=y)),
    element(9,Bs,Sq8),((Sq8=g);(Sq8=r);(Sq8=y)),
    element(7,Ds,Sq9),((Sq9=g);(Sq9=r);(Sq9=y)),
    back1(Cube,Cube1),showcube(Cube1),
    align_corners(Cube1,Cube2),
    back_1(Cube2,Cube3),showcube(Cube3),
    inverse_align_corners(Cube3,NewCube))
    ;
   (element(3,Us,Sq1),((Sq1=o);(Sq1=y);(Sq1=b)),
    element(1,Bs,Sq2),((Sq2=o);(Sq2=y);(Sq2=b)),
    element(3,Rs,Sq3),((Sq3=o);(Sq3=y);(Sq3=b)),
    element(1,Us,Sq4),((Sq4=r);(Sq4=y);(Sq4=g)),
    element(1,Ls,Sq5),((Sq5=r);(Sq5=y);(Sq5=g)),
    element(3,Bs,Sq6),((Sq6=r);(Sq6=y);(Sq6=g)),
    element(7,Ls,Sq7),((Sq7=b);(Sq7=r);(Sq7=y)),
    element(9,Bs,Sq8),((Sq8=b);(Sq8=r);(Sq8=y)),
    element(7,Ds,Sq9),((Sq9=b);(Sq9=r);(Sq9=y)),
    back1(Cube,Cube1),showcube(Cube1),
    back1(Cube1,Cube2),showcube(Cube2),
    align_corners(Cube2,Cube3),
    back1(Cube3,Cube4),showcube(Cube4),
    inverse_align_corners(Cube4,NewCube))
    ;
   (element(3,Us,Sq1),((Sq1=o);(Sq1=y);(Sq1=b)),
    element(1,Bs,Sq2),((Sq2=o);(Sq2=y);(Sq2=b)),
    element(3,Rs,Sq3),((Sq3=o);(Sq3=y);(Sq3=b)),
    element(1,Us,Sq4),((Sq4=r);(Sq4=y);(Sq4=b)),
    element(1,Ls,Sq5),((Sq5=r);(Sq5=y);(Sq5=b)),
    element(3,Bs,Sq6),((Sq6=r);(Sq6=y);(Sq6=b)),
    element(7,Ls,Sq7),((Sq7=g);(Sq7=r);(Sq7=y)),
    element(9,Bs,Sq8),((Sq8=g);(Sq8=r);(Sq8=y)),
    element(7,Ds,Sq9),((Sq9=g);(Sq9=r);(Sq9=y)),
    align_corners(Cube,Cube1),
    back1(Cube1,Cube2),showcube(Cube2),
    back1(Cube2,Cube3),showcube(Cube3),
    inverse_align_corners(Cube3,NewCube))   ),!.


align_corners(Cube1,NewCube):-
   upper1(Cube1,Cube2),showcube(Cube2),
   right1(Cube2,Cube3),showcube(Cube3),
   upper_1(Cube3,Cube4),showcube(Cube4),
   right_1(Cube4,NewCube),showcube(NewCube),!.


inverse_align_corners(Cube1,NewCube):-
   right1(Cube1,Cube2),showcube(Cube2),
   upper1(Cube2,Cube3),showcube(Cube3),
   right_1(Cube3,Cube4),showcube(Cube4),
   upper_1(Cube4,NewCube),showcube(NewCube),!.


corners_done(Col,Face,OKCorners):-

 (  (matching_lists([y,_,y,_,y,_,y,_,y],Face),(OKCorners is 4));

   ((matching_lists([y,_,y,_,y,_,_,_,_],Face);
     matching_lists([y,_,_,_,y,_,y,_,_],Face);
     matching_lists([y,_,_,_,y,_,_,_,y],Face);
     matching_lists([_,_,y,_,y,_,y,_,_],Face);
     matching_lists([_,_,y,_,y,_,_,_,y],Face);
     matching_lists([_,_,_,_,y,_,y,_,y],Face)),(OKCorners is 2));

   ((matching_lists([y,_,_,_,y,_,_,_,_],Face);
     matching_lists([_,_,y,_,y,_,_,_,_],Face);
     matching_lists([_,_,_,_,y,_,y,_,_],Face);
     matching_lists([_,_,_,_,y,_,_,_,y],Face)),(OKCorners is 1));

    (OKCorners is 0)  ),!.


position_2_corners(Cube,NewCube):-
   subgoal5d(SubGoal5d),
   maxdepth(Maxdepth),
   solve(Cube,Sol1,Maxdepth,SubGoal5d,['Face moves']),!,
   count(Sol1,N1),!,
   ((N1 =< 2, unchanged(Cube,Cube1)) ;
    (N1 > 2,  tidy_solution(Sol1,Cube1))),
   twist_corner(Cube1,Cube2),
   fix_1_square(Cube2,Cube3),
   inverse_twist_corner(Cube3,NewCube),!.


position_1_corner(Cube,NewCube):-
  cube2lists(Cube,_,_,_,_,_,_,Bs),
  ((element(1,Bs,Sq),(Sq = y),back1(Cube,Cube2),showcube(Cube2));
   (element(7,Bs,Sq),(Sq = y),back1(Cube,Cube1),showcube(Cube1),
                              back1(Cube1,Cube2),showcube(Cube2));
   (element(9,Bs,Sq),(Sq = y),back_1(Cube,Cube2),showcube(Cube2))),

   twist_corner(Cube2,Cube3),
   back1(Cube3,Cube4),showcube(Cube4),
   inverse_twist_corner(Cube4,NewCube),!.

twist_corner(Cube,NewCube):-
   right_1(Cube,Cube1),showcube(Cube1),
   front1(Cube1,Cube2),showcube(Cube2),
   right1(Cube2,Cube3),showcube(Cube3),
   upper1(Cube3,Cube4),showcube(Cube4),
   front1(Cube4,Cube5),showcube(Cube5),
   upper_1(Cube5,NewCube),showcube(NewCube),!.


inverse_twist_corner(Cube,NewCube):-
   upper1(Cube,Cube1),showcube(Cube1),
   front_1(Cube1,Cube2),showcube(Cube2),
   upper_1(Cube2,Cube3),showcube(Cube3),
   right_1(Cube3,Cube4),showcube(Cube4),
   front_1(Cube4,Cube5),showcube(Cube5),
   right1(Cube5,NewCube),showcube(NewCube),!.


fix_1_square(Cube,NewCube):-

    ((cube2lists(Cube,_,_,_,Rs,_,_,_),
     element(3,Rs,Sq),(Sq=y),unchanged(Cube,NewCube));

    (back1(Cube,Cube1),
     cube2lists(Cube1,_,_,_,Rs,_,_,_),
     element(3,Rs,Sq),(Sq=y),unchanged(Cube1,NewCube));

    (back_1(Cube,Cube1),
     cube2lists(Cube1,_,_,_,Rs,_,_,_),
     element(3,Rs,Sq),(Sq=y),unchanged(Cube1,NewCube));

    (back1(Cube,Cube1),
     back1(Cube1,Cube2),
     cube2lists(Cube2,_,_,_,Rs,_,_,_),
     element(3,Rs,Sq),(Sq=y),unchanged(Cube2,NewCube);
     showcube(Cube1))),

     showcube(NewCube),!.


/* 2. FOR EDGE PIECES
   These processing routines also take the form of a pattern match
   succeeding followed by the appropriate action to take.
*/



do_two_edges(ColX,ColY,ColZ,Cube,NewCube):-
   (middle_layer(ColX,ColY,Cube,Cube1);
    upper_top(ColX,ColY,Cube,Cube1);
    upper_bottom(ColX,ColY,Cube,Cube1);
    left_back_or_front(ColX,ColY,Cube,Cube1);
    right_back_or_front(ColX,ColY,Cube,Cube1);
    down_back_or_front(ColX,ColY,Cube,Cube1)),

    reposition_slice(ColX,ColY,Cube1,Cube2),
    position_edge_piece(ColX,ColY,Cube2,Cube3),

   (middle_layer(ColY,ColZ,Cube3,Cube4);
    upper_top(ColY,ColZ,Cube3,Cube4);
    upper_bottom(ColY,ColZ,Cube3,Cube4);
    left_back_or_front(ColY,ColZ,Cube3,Cube4);
    right_back_or_front(ColY,ColZ,Cube3,Cube4);
    down_back_or_front(ColY,ColZ,Cube3,Cube4)),

    reposition_slice(ColY,ColZ,Cube4,Cube5),
    position_edge_piece(ColY,ColZ,Cube5,NewCube),!.


middle_layer(ColX,ColY,Cube,NewCube):-
        cube2lists(Cube,_,Fs,Ls,Rs,Us,Ds,Bs),
        ((element(4,Us,Sq1),((Sq1=ColX);(Sq1=ColY)),
          element(2,Ls,Sq2),((Sq2=ColX);(Sq2=ColY)));
         (element(6,Us,Sq1),((Sq1=ColX);(Sq1=ColY)),
          element(2,Rs,Sq2),((Sq2=ColX);(Sq2=ColY)));
         (element(8,Ls,Sq1),((Sq1=ColX);(Sq1=ColY)),
          element(4,Ds,Sq2),((Sq2=ColX);(Sq2=ColY)));
         (element(8,Rs,Sq1),((Sq1=ColX);(Sq1=ColY)),
          element(6,Ds,Sq2),((Sq2=ColX);(Sq2=ColY)))),
          unchanged(Cube,NewCube),!.

upper_top(ColX,ColY,Cube,NewCube):-
          cube2lists(Cube,_,_,_,_,Us,_,Bs),
          element(2,Us,A),((A=ColX);(A=ColY)),
          element(2,Bs,B),((B=ColX);(B=ColY)),
          upper1(Cube,Cube1),showcube(Cube1),
          roll_1(Cube1,Cube2),showcube(Cube2),
          roll_1(Cube2,Cube3),showcube(Cube3),
          upper_1(Cube3,NewCube),showcube(NewCube),!.


upper_bottom(ColX,ColY,Cube,NewCube):-
          cube2lists(Cube,_,Fs,_,_,Us,_,_),
          element(8,Us,A),((A=ColX);(A=ColY)),
          element(2,Fs,B),((B=ColX);(B=ColY)),
          upper1(Cube,Cube1),showcube(Cube1),
          roll_1(Cube1,Cube2),showcube(Cube2),
          roll_1(Cube2,Cube3),showcube(Cube3),
          upper_1(Cube3,Cube4),showcube(Cube4),
          roll_1(Cube4,Cube5),showcube(Cube5),
          upper1(Cube5,Cube6),showcube(Cube6),
          roll_1(Cube6,Cube7),showcube(Cube7),
          upper_1(Cube7,NewCube),showcube(NewCube),!.

left_back_or_front(ColX,ColY,Cube,NewCube):-
          cube2lists(Cube,_,Fs,Ls,_,_,_,Bs),

        ((element(4,Ls,Sq1),((Sq1=ColX);(Sq1=ColY)),
          element(6,Bs,Sq2),((Sq2=ColX);(Sq2=ColY)));

         (element(4,Fs,Sq1),((Sq1=ColX);(Sq1=ColY)),
          element(6,Ls,Sq2),((Sq2=ColX);(Sq2=ColY)))),

          left1(Cube,Cube1),showcube(Cube1),
          roll_1(Cube1,Cube2),showcube(Cube2),
          roll_1(Cube2,Cube3),showcube(Cube3),
          left_1(Cube3,NewCube),showcube(NewCube),!.


right_back_or_front(ColX,ColY,Cube,NewCube):-
          cube2lists(Cube,_,Fs,_,Rs,_,_,Bs),

        ((element(4,Rs,Sq1),((Sq1=ColX);(Sq1=ColY)),
          element(6,Fs,Sq2),((Sq2=ColX);(Sq2=ColY)));

         (element(6,Rs,Sq1),((Sq1=ColX);(Sq1=ColY)),
          element(4,Bs,Sq2),((Sq2=ColX);(Sq2=ColY)))),

          right1(Cube,Cube1),showcube(Cube1),
          roll_1(Cube1,Cube2),showcube(Cube2),
          roll_1(Cube2,Cube3),showcube(Cube3),
          right_1(Cube3,NewCube),showcube(NewCube),!.


down_back_or_front(ColX,ColY,Cube,NewCube):-
          cube2lists(Cube,_,Fs,_,_,_,Ds,Bs),

        ((element(8,Fs,Sq1),((Sq1=ColX);(Sq1=ColY)),
          element(2,Ds,Sq2),((Sq2=ColX);(Sq2=ColY)));

         (element(8,Bs,Sq1),((Sq1=ColX);(Sq1=ColY)),
          element(8,Ds,Sq2),((Sq2=ColX);(Sq2=ColY)))),

          down1(Cube,Cube1),showcube(Cube1),
          roll_1(Cube1,Cube2),showcube(Cube2),
          roll_1(Cube2,Cube3),showcube(Cube3),
          down_1(Cube3,NewCube),showcube(NewCube),!.


reposition_slice(ColX,ColY,Cube,NewCube):-
          cube2lists(Cube,_,Fs,Ls,Rs,Us,Ds,Bs),

        ((element(4,Us,A),(A=ColX),element(2,Ls,B),(B=ColY),
          roll_1(Cube,NewCube),showcube(NewCube));

         (element(4,Us,C),(C=ColY),element(2,Ls,D),(D=ColX),
          roll1(Cube,Cube1),showcube(Cube1),
          roll1(Cube1,NewCube),showcube(NewCube));

         (element(6,Us,E),(E=ColX),element(2,Rs,F),(F=ColY),
          roll1(Cube,NewCube),showcube(NewCube));

         (element(6,Us,G),(G=ColY),element(2,Rs,H),(H=ColX),
          roll1(Cube,Cube1),showcube(Cube1),
          roll1(Cube1,NewCube),showcube(NewCube));

         (element(8,Ls,I),(I=ColX),element(4,Ds,J),(J=ColY),
          unchanged(Cube,NewCube));

         (element(8,Ls,K),(K=ColY),element(4,Ds,L),(L=ColX),
          roll_1(Cube,NewCube),showcube(NewCube));

         (element(8,Rs,M),(M=ColX),element(6,Ds,N),(N=ColY),
          unchanged(Cube,NewCube));

         (element(8,Rs,O),(O=ColY),element(6,Ds,P),(P=ColX),
          roll1(Cube,NewCube),showcube(NewCube))),!.


position_edge_piece(ColX,ColY,Cube,NewCube):-
          cube2lists(Cube,_,_,Ls,Rs,_,Ds,_),

        ((element(8,Ls,Sq1),(Sq1=ColX),
          element(4,Ds,Sq2),(Sq2=ColY),
          upper_1(Cube,Cube1),showcube(Cube1),
          roll1(Cube1,Cube2),showcube(Cube2),
          upper1(Cube2,NewCube),showcube(NewCube));

         (element(8,Rs,Sq1),(Sq1=ColX),
          element(6,Ds,Sq2),(Sq2=ColY),
          upper1(Cube,Cube1),showcube(Cube1),
          roll_1(Cube1,Cube2),showcube(Cube2),
          upper_1(Cube2,NewCube),showcube(NewCube))),!.

roll_1_whole_cube(Cube,NewCube):-
          back1(Cube,Cube1),showcube(Cube1),
          roll_1(Cube1,Cube2),showcube(Cube2),
          front_1(Cube2,NewCube),showcube(NewCube),!.

edges_done(Cube,OKEdges,WhichEdges):-
          cube2lists(Cube,_,Fs,Ls,Rs,Us,Ds,Bs),
          element(8,Rs,A),element(6,Us,B),
          element(2,Ls,C),element(4,Ds,D),

(((A=g),(B=r),(C=b),(D=o),(OKEdges is 4),(WhichEdges is []));
 ((A=\=g),(B=\=r),(C=b),(D=o),(OKEdges is 2),(WhichEdges is [[g,o],[g,r]]));
 ((A=\=g),(B=r),(C=\=b),(D=o),(OKEdges is 2),(WhichEdges is [[g,o],[b,r]]));
 ((A=\=g),(B=r),(C=b),(D=\=o),(OKEdges is 2),(WhichEdges is [[g,o],[b,o]]));
 ((A=g),(B=\=r),(C=\=b),(D=o),(OKEdges is 2),(WhichEdges is [[g,r],[b,r]]));
 ((A=g),(B=\=r),(C=b),(D=\=o),(OKEdges is 2),(WhichEdges is [[g,r],[b,o]]));
 ((A=g),(B=r),(C=\=b),(D=\=o),(OKEdges is 2),(WhichEdges is [[b,r],[b,o]]));
 ((OKEdges is 0),(WhichEdges is [[g,o],[g,r],[b,r],[b,o]]))),!.


position_2_edges(Cube,NewCube,WhichEdges):-
           takehead(WhichEdges,FirstEdge,TempEdges),
           fix_1_edge(Cube,Cube1,FirstEdge),
           flip_one_edge(Cube1,Cube2),
           takehead(TempEdges,SecondEdge,_),
           fix_1_edge(Cube2,Cube3,SecondEdge),
           inverse_flip_one_edge(Cube3,Cube4),
           reposition_edges(Cube4,NewCube),!.

fix_1_edge(Cube,NewCube,Edge):-
        cube2lists(Cube,_,Fs,Ls,Rs,Us,Ds,Bs),
        element(1,Edge,ColX),element(2,Edge,ColY),

        ((element(6,Us,A),((A=ColX);(A=ColY)),
          element(2,Rs,B),((B=ColX);(B=ColY)),
          unchanged(Cube,NewCube));

         (element(8,Rs,A),((A=ColX);(A=ColY)),
          element(6,Ds,B),((B=ColX);(B=ColY)),
          roll_1(Cube,NewCube),showcube(NewCube));

         (element(4,Us,A),((A=ColX);(A=ColY)),
          element(2,Ls,B),((B=ColX);(B=ColY)),
          roll1(Cube,NewCube),showcube(NewCube));

         (element(8,Ls,A),((A=ColX);(A=ColY)),
          element(4,Ds,B),((B=ColX);(B=ColY)),
          roll1(Cube,Cube1),showcube(Cube1),
          roll1(Cube1,NewCube),showcube(NewCube))),!.

flip_one_edge(Cube,NewCube):-
         upper_1(Cube,Cube1),showcube(Cube1),
         right1(Cube1,Cube2),showcube(Cube2),
         back_1(Cube2,Cube3),showcube(Cube3),
         upper1(Cube3,Cube4),showcube(Cube4),
         right_1(Cube4,NewCube),showcube(NewCube),!.


inverse_flip_one_edge(Cube,NewCube):-
         right1(Cube,Cube1),showcube(Cube1),
         upper_1(Cube1,Cube2),showcube(Cube2),
         back1(Cube2,Cube3),showcube(Cube3),
         right_1(Cube3,Cube4),showcube(Cube4),
         upper1(Cube4,NewCube),showcube(NewCube),!.

reposition_edges(Cube,NewCube):-
         cube2lists(Cube,_,Fs,Ls,Rs,Us,Ds,Bs),

        ((element(8,Rs,A),((A=g);(A=o)),
          element(6,Ds,B),((B=g);(B=o)),
          unchanged(Cube,NewCube));

         (element(6,Us,A),((A=g);(A=o)),
          element(2,Rs,B),((B=g);(B=o)),
          roll1(Cube,NewCube),showcube(NewCube));

         (element(4,Us,A),((A=g);(A=o)),
          element(2,Ls,B),((B=g);(B=o)),
          roll1(Cube,Cube1),showcube(Cube1),
          roll1(Cube1,NewCube),showcube(NewCube));

         (element(8,Ls,A),((A=g);(A=o)),
          element(4,Ds,B),((B=g);(B=o)),
          roll_1(Cube,NewCube),showcube(NewCube))),!.

solve_edges_pattern(Cube,NewCube):-
         cube2lists(Cube,_,Fs,Ls,Rs,Us,Ds,Bs),

        ((element(6,Us,A),((A=r);(A=g)),
          element(2,Rs,B),((B=r);(B=g)),
          element(4,Us,C),((C=b);(C=r)),
          element(2,Ls,D),((D=b);(D=r)),
          element(8,Ls,E),((E=b);(E=o)),
          element(4,Ds,F),((F=b);(F=o)),
          unchanged(Cube,NewCube));

         (element(6,Us,A),((A=r);(A=g)),
          element(2,Rs,B),((B=r);(B=g)),
          element(4,Us,C),((C=b);(C=o)),
          element(2,Ls,D),((D=b);(D=o)),
          element(8,Ls,E),((E=b);(E=r)),
          element(4,Ds,F),((F=b);(F=r)),
          upper1(Cube,Cube1),showcube(Cube1),
          upper1(Cube1,Cube2),showcube(Cube2),
          roll_1(Cube2,Cube3),showcube(Cube3),
          upper1(Cube3,Cube4),showcube(Cube4),
          upper1(Cube4,NewCube),showcube(NewCube));

         (element(6,Us,A),((A=r);(A=b)),
          element(2,Rs,B),((B=r);(B=b)),
          element(4,Us,C),((C=r);(C=g)),
          element(2,Ls,D),((D=r);(D=g)),
          element(8,Ls,E),((E=b);(E=o)),
          element(4,Ds,F),((F=b);(F=o)),
          roll_1(Cube,Cube1),showcube(Cube1),
          upper1(Cube1,Cube2),showcube(Cube2),
          upper1(Cube2,Cube3),showcube(Cube3),
          roll_1(Cube3,Cube4),showcube(Cube4),
          upper1(Cube4,Cube5),showcube(Cube5),
          upper1(Cube5,NewCube),showcube(NewCube));


         (element(6,Us,A),((A=r);(A=b)),
          element(2,Rs,B),((B=r);(B=b)),
          element(4,Us,C),((C=o);(C=b)),
          element(2,Ls,D),((D=o);(D=b)),
          element(8,Ls,E),((E=r);(E=g)),
          element(4,Ds,F),((F=r);(F=g)),
          roll_1(Cube,Cube1),showcube(Cube1),
          upper1(Cube1,Cube2),showcube(Cube2),
          upper1(Cube2,Cube3),showcube(Cube3),
          roll1(Cube3,Cube4),showcube(Cube4),
          upper1(Cube4,Cube5),showcube(Cube5),
          upper1(Cube5,NewCube),showcube(NewCube));


         (element(6,Us,A),((A=b);(A=o)),
          element(2,Rs,B),((B=b);(B=o)),
          element(4,Us,C),((C=g);(C=r)),
          element(2,Ls,D),((D=g);(D=r)),
          element(8,Ls,E),((E=r);(E=b)),
          element(4,Ds,F),((F=r);(F=b)),
          roll_1(Cube,Cube1),showcube(Cube1),
          roll_1(Cube1,Cube2),showcube(Cube2),
          upper1(Cube2,Cube3),showcube(Cube3),
          upper1(Cube3,Cube4),showcube(Cube4),
          roll_1(Cube4,Cube5),showcube(Cube5),
          upper1(Cube5,Cube6),showcube(Cube6),
          upper1(Cube6,NewCube),showcube(NewCube));

         (element(6,Us,A),((A=b);(A=o)),
          element(2,Rs,B),((B=b);(B=o)),
          element(4,Us,C),((C=b);(C=r)),
          element(2,Ls,D),((D=b);(D=r)),
          element(8,Ls,E),((E=r);(E=g)),
          element(4,Ds,F),((F=r);(F=g)),
          upper1(Cube,Cube1),showcube(Cube1),
          upper1(Cube1,Cube2),showcube(Cube2),
          roll_1(Cube2,Cube3),showcube(Cube3),
          roll_1(Cube3,Cube4),showcube(Cube4),
          upper1(Cube4,Cube5),showcube(Cube5),
          upper1(Cube5,NewCube),showcube(NewCube))),!.


/* 3. FOR CENTRE-PIECES
   These processing routines usually take the form of a pattern match
   succeeding followed by the appropriate action to take.
*/

centres_done(Cube,OKCentres):-
          cube2lists(Cube,_,Fs,Ls,Rs,Us,Ds,Bs),

          ((element(5,Fs,A),element(1,Fs,B),(A=\=B),
            element(5,Ls,C),element(1,Ls,D),(C=\=D),
            element(5,Rs,E),element(1,Rs,F),(E=\=F),
            element(5,Us,G),element(1,Us,H),(G=\=H),
            element(5,Ds,I),element(1,Ds,J),(I=\=J),
            element(5,Bs,K),element(1,Bs,L),(K=\=L),
            (OKCentres is 0))
            ;
            (OKCentres is 2)),!.

position_4_centres(Cube,NewCube):-
            cube2lists(Cube,_,Fs,Ls,Rs,Us,Ds,Bs),

       ( (((element(5,Fs,A),element(1,Fs,B),(A=B));
           (element(5,Bs,A),element(1,Bs,B),(A=B))),
            pitch1(Cube,Cube1),showcube(Cube1),
            pitch1(Cube1,Cube2),showcube(Cube2),
            roll1(Cube2,Cube3),showcube(Cube3),
            pitch1(Cube3,Cube4),showcube(Cube4),
            pitch1(Cube4,Cube5),showcube(Cube5),
            roll_1(Cube5,NewCube),showcube(NewCube)) ;

         (((element(5,Ls,A),element(1,Ls,B),(A=B));
           (element(5,Rs,A),element(1,Rs,B),(A=B))),
            roll1(Cube,Cube1),showcube(Cube1),
            roll1(Cube1,Cube2),showcube(Cube2),
            pitch1(Cube2,Cube3),showcube(Cube3),
            roll1(Cube3,Cube4),showcube(Cube4),
            roll1(Cube4,Cube5),showcube(Cube5),
            pitch_1(Cube5,NewCube),showcube(NewCube)) ;

         (((element(5,Us,A),element(1,Us,B),(A=B));
           (element(5,Ds,A),element(1,Ds,B),(A=B))),
            pitch1(Cube,Cube1),showcube(Cube1),
            pitch1(Cube1,Cube2),showcube(Cube2),
            yaw1(Cube2,Cube3),showcube(Cube3),
            pitch1(Cube3,Cube4),showcube(Cube4),
            pitch1(Cube4,Cube5),showcube(Cube5),
            yaw_1(Cube5,NewCube),showcube(NewCube)) ),!.



/************************************************************************/
/* ----------------------- LIST PROCESSING PROCEDURES ----------------- */
/************************************************************************/

/* CONVERSION PROCEDURES.
   Procedure lists2cube converts the internal representation
   of the cube from 7 lists (6 face lists plus one operation list) into
   one list of 7 sublists. Procedure cube2lists performs the inverse
   operation.
   These procedures are necessary to ease list processing during the
   running of the program.

 */

lists2cube(Op,Fs,Ls,Rs,Us,Ds,Bs,Cube7):-
                            insert(Bs,Cube0,Cube1),
                            insert(Ds,Cube1,Cube2),
                            insert(Us,Cube2,Cube3),
                            insert(Rs,Cube3,Cube4),
                            insert(Ls,Cube4,Cube5),
                            insert(Fs,Cube5,Cube6),
                            insert(Op,Cube6,Cube7),!.

insert(X,[],[X]).
insert(X,Xs,[X|Xs]).

cube2lists(Cube1,Op,Fs,Ls,Rs,Us,Ds,Bs):-
                            takehead(Cube1,Op,Cube2),
                            takehead(Cube2,Fs,Cube3),
                            takehead(Cube3,Ls,Cube4),
                            takehead(Cube4,Rs,Cube5),
                            takehead(Cube5,Us,Cube6),
                            takehead(Cube6,Ds,Cube7),
                            takehead(Cube7,Bs,Cube8),!.


takehead([],_,[]).
takehead([X],X,[]).
takehead([X|Xs],X,Xs).


/* matching_lists takes two lists and succeeds if they match
   using a simple '=' operator. This is used when checking to
   see if subgoal state have been reached.
*/


matching_lists([],[]).
matching_lists([H1|T1],[H2|T2]):- H1 = H2,
                                  matching_lists(T1,T2),!.



/**********************************************************************/
/* --------------- MANIPULATION OF LIST ELEMENTS PROCEDURES. -------- */
/**********************************************************************/

/* The replace procedure extracts the element at position'N' in
   the list Ls and replaces it with the element X, the new list
   is called NewLs.
*/

replace(X,N,Ls,NewLs):- remove(N,Ls,Temp),
                        insert(N,X,Temp,NewLs),!.

/* element returns the value of the 'nth' element of a list. */

element(1,[X|L],X):-!.
element(N,[_|List],X):- N1 is N-1, element(N1,List,X),!.

/* This procedure removes the 'nth' element of a list and returns a list of
    eight elements. */

remove(1,[X|L],L):-!.
remove(N,[X|L1],[X|L2]):- N1 is N-1, remove(N1,L1,L2),!.

/* This procedure inserts an element at the same 'nth' position in the list. */

insert(1,X,Ys,[X|Ys]):-!.
insert(N,X,[Y|Ys],[Y|Zs]):- N1 is N-1, insert(N1,X,Ys,Zs),!.


/* 'conc' simply concatenates two lists and returns the
    resulting third list.
*/

conc([],L,L).
conc([X|L1],L2,[X|L3]):- conc(L1,L2,L3).


/* reverse takes a list and simply returns it reversed */

reverse([],[]).
reverse([X],[X]).
reverse([X|Xs],Ys):- reverse(Xs,Zs),
                     conc(Zs,[X],Ys),!.


/* If the list is empty then 0 is returned.
   Otherwise N is increased by 1, the Tail of the list is
   counted recursively.
*/

count([], 0).
count([_|Tail],N):-  count(Tail,N1),
                     N is 1+N1.


/***********************************************************************/
/*------------------------ THE BASIC OPERATIONS -----------------------*/
/***********************************************************************/

unchanged(Xs,Xs):-!.

/* One clockwise rotation moves */



front1(Cube,NewCube):-
                    cube2lists(Cube,Op,Fs,Ls,Rs,Us,Ds,Bs),

                    element(3,Ls,A), replace(A,9,Us,NewUs1),
                    element(6,Ls,B), replace(B,8,NewUs1,NewUs2),
                    element(9,Ls,C), replace(C,7,NewUs2,NewUs3),

                    element(9,Us,D), replace(D,7,Rs,NewRs1),
                    element(8,Us,E), replace(E,4,NewRs1,NewRs2),
                    element(7,Us,F), replace(F,1,NewRs2,NewRs3),

                    element(7,Rs,G), replace(G,1,Ds,NewDs1),
                    element(4,Rs,H), replace(H,2,NewDs1,NewDs2),
                    element(1,Rs,I), replace(I,3,NewDs2,NewDs3),

                    element(1,Ds,J), replace(J,3,Ls,NewLs1),
                    element(2,Ds,K), replace(K,6,NewLs1,NewLs2),
                    element(3,Ds,L), replace(L,9,NewLs2,NewLs3),


                    element(1,Fs,M), replace(M,3,[_,_,_,_,_,_,_,_,_],NewFs1),
                    element(2,Fs,N), replace(N,6,NewFs1,NewFs2),
                    element(3,Fs,O), replace(O,9,NewFs2,NewFs3),
                    element(4,Fs,P), replace(P,2,NewFs3,NewFs4),
                    element(5,Fs,Q), replace(Q,5,NewFs4,NewFs5),
                    element(6,Fs,R), replace(R,8,NewFs5,NewFs6),
                    element(7,Fs,S), replace(S,1,NewFs6,NewFs7),
                    element(8,Fs,T), replace(T,4,NewFs7,NewFs8),
                    element(9,Fs,U), replace(U,7,NewFs8,NewFs9),

                    unchanged(Bs,NewBs3),

                    lists2cube(['Front 1'],NewFs9,NewLs3,NewRs3,
                                 NewUs3,NewDs3,NewBs3,NewCube),!.



right1(Cube,NewCube):-
                    cube2lists(Cube,Op,Fs,Ls,Rs,Us,Ds,Bs),

                    element(3,Fs,A), replace(A,3,Us,NewUs1),
                    element(6,Fs,B), replace(B,6,NewUs1,NewUs2),
                    element(9,Fs,C), replace(C,9,NewUs2,NewUs3),

                    element(3,Us,D), replace(D,7,Bs,NewBs1),
                    element(6,Us,E), replace(E,4,NewBs1,NewBs2),
                    element(9,Us,F), replace(F,1,NewBs2,NewBs3),

                    element(7,Bs,G), replace(G,3,Ds,NewDs1),
                    element(4,Bs,H), replace(H,6,NewDs1,NewDs2),
                    element(1,Bs,I), replace(I,9,NewDs2,NewDs3),

                    element(3,Ds,J), replace(J,3,Fs,NewFs1),
                    element(6,Ds,K), replace(K,6,NewFs1,NewFs2),
                    element(9,Ds,L), replace(L,9,NewFs2,NewFs3),


                    element(1,Rs,M), replace(M,3,[_,_,_,_,_,_,_,_,_],NewRs1),
                    element(2,Rs,N), replace(N,6,NewRs1,NewRs2),
                    element(3,Rs,O), replace(O,9,NewRs2,NewRs3),
                    element(4,Rs,P), replace(P,2,NewRs3,NewRs4),
                    element(5,Rs,Q), replace(Q,5,NewRs4,NewRs5),
                    element(6,Rs,R), replace(R,8,NewRs5,NewRs6),
                    element(7,Rs,S), replace(S,1,NewRs6,NewRs7),
                    element(8,Rs,T), replace(T,4,NewRs7,NewRs8),
                    element(9,Rs,U), replace(U,7,NewRs8,NewRs9),

                    unchanged(Ls,NewLs3),

                    lists2cube(['Right 1'],NewFs3,NewLs3,NewRs9,
                                 NewUs3,NewDs3,NewBs3,NewCube),!.



left1(Cube,NewCube):-
                    cube2lists(Cube,Op,Fs,Ls,Rs,Us,Ds,Bs),

                    element(1,Fs,A), replace(A,1,Ds,NewDs1),
                    element(4,Fs,B), replace(B,4,NewDs1,NewDs2),
                    element(7,Fs,C), replace(C,7,NewDs2,NewDs3),

                    element(1,Ds,D), replace(D,9,Bs,NewBs1),
                    element(4,Ds,E), replace(E,6,NewBs1,NewBs2),
                    element(7,Ds,F), replace(F,3,NewBs2,NewBs3),

                    element(9,Bs,G), replace(G,1,Us,NewUs1),
                    element(6,Bs,H), replace(H,4,NewUs1,NewUs2),
                    element(3,Bs,I), replace(I,7,NewUs2,NewUs3),

                    element(1,Us,J), replace(J,1,Fs,NewFs1),
                    element(4,Us,K), replace(K,4,NewFs1,NewFs2),
                    element(7,Us,L), replace(L,7,NewFs2,NewFs3),


                    element(1,Ls,M), replace(M,3,[_,_,_,_,_,_,_,_,_],NewLs1),
                    element(2,Ls,N), replace(N,6,NewLs1,NewLs2),
                    element(3,Ls,O), replace(O,9,NewLs2,NewLs3),
                    element(4,Ls,P), replace(P,2,NewLs3,NewLs4),
                    element(5,Ls,Q), replace(Q,5,NewLs4,NewLs5),
                    element(6,Ls,R), replace(R,8,NewLs5,NewLs6),
                    element(7,Ls,S), replace(S,1,NewLs6,NewLs7),
                    element(8,Ls,T), replace(T,4,NewLs7,NewLs8),
                    element(9,Ls,U), replace(U,7,NewLs8,NewLs9),

                    unchanged(Rs,NewRs3),

                    lists2cube(['Left 1'],NewFs3,NewLs9,NewRs3,
                                 NewUs3,NewDs3,NewBs3,NewCube),!.

upper1(Cube,NewCube):-
                    cube2lists(Cube,Op,Fs,Ls,Rs,Us,Ds,Bs),

                    element(1,Fs,A), replace(A,1,Ls,NewLs1),
                    element(2,Fs,B), replace(B,2,NewLs1,NewLs2),
                    element(3,Fs,C), replace(C,3,NewLs2,NewLs3),

                    element(1,Ls,D), replace(D,1,Bs,NewBs1),
                    element(2,Ls,E), replace(E,2,NewBs1,NewBs2),
                    element(3,Ls,F), replace(F,3,NewBs2,NewBs3),

                    element(1,Bs,G), replace(G,1,Rs,NewRs1),
                    element(2,Bs,H), replace(H,2,NewRs1,NewRs2),
                    element(3,Bs,I), replace(I,3,NewRs2,NewRs3),

                    element(1,Rs,J), replace(J,1,Fs,NewFs1),
                    element(2,Rs,K), replace(K,2,NewFs1,NewFs2),
                    element(3,Rs,L), replace(L,3,NewFs2,NewFs3),


                    element(1,Us,M), replace(M,3,[_,_,_,_,_,_,_,_,_],NewUs1),
                    element(2,Us,N), replace(N,6,NewUs1,NewUs2),
                    element(3,Us,O), replace(O,9,NewUs2,NewUs3),
                    element(4,Us,P), replace(P,2,NewUs3,NewUs4),
                    element(5,Us,Q), replace(Q,5,NewUs4,NewUs5),
                    element(6,Us,R), replace(R,8,NewUs5,NewUs6),
                    element(7,Us,S), replace(S,1,NewUs6,NewUs7),
                    element(8,Us,T), replace(T,4,NewUs7,NewUs8),
                    element(9,Us,U), replace(U,7,NewUs8,NewUs9),

                    unchanged(Ds,NewDs3),

                    lists2cube(['Upper 1'],NewFs3,NewLs3,NewRs3,
                                 NewUs9,NewDs3,NewBs3,NewCube),!.



down1(Cube,NewCube):-
                    cube2lists(Cube,Op,Fs,Ls,Rs,Us,Ds,Bs),

                    element(7,Fs,A), replace(A,7,Rs,NewRs1),
                    element(8,Fs,B), replace(B,8,NewRs1,NewRs2),
                    element(9,Fs,C), replace(C,9,NewRs2,NewRs3),

                    element(7,Rs,D), replace(D,7,Bs,NewBs1),
                    element(8,Rs,E), replace(E,8,NewBs1,NewBs2),
                    element(9,Rs,F), replace(F,9,NewBs2,NewBs3),

                    element(7,Bs,G), replace(G,7,Ls,NewLs1),
                    element(8,Bs,H), replace(H,8,NewLs1,NewLs2),
                    element(9,Bs,I), replace(I,9,NewLs2,NewLs3),

                    element(7,Ls,J), replace(J,7,Fs,NewFs1),
                    element(8,Ls,K), replace(K,8,NewFs1,NewFs2),
                    element(9,Ls,L), replace(L,9,NewFs2,NewFs3),


                    element(1,Ds,M), replace(M,3,[_,_,_,_,_,_,_,_,_],NewDs1),
                    element(2,Ds,N), replace(N,6,NewDs1,NewDs2),
                    element(3,Ds,O), replace(O,9,NewDs2,NewDs3),
                    element(4,Ds,P), replace(P,2,NewDs3,NewDs4),
                    element(5,Ds,Q), replace(Q,5,NewDs4,NewDs5),
                    element(6,Ds,R), replace(R,8,NewDs5,NewDs6),
                    element(7,Ds,S), replace(S,1,NewDs6,NewDs7),
                    element(8,Ds,T), replace(T,4,NewDs7,NewDs8),
                    element(9,Ds,U), replace(U,7,NewDs8,NewDs9),

                    unchanged(Us,NewUs3),

                    lists2cube(['Down 1'],NewFs3,NewLs3,NewRs3,
                                 NewUs3,NewDs9,NewBs3,NewCube),!.




back1(Cube,NewCube):-
                    cube2lists(Cube,Op,Fs,Ls,Rs,Us,Ds,Bs),

                    element(1,Ls,A), replace(A,7,Ds,NewDs1),
                    element(4,Ls,B), replace(B,8,NewDs1,NewDs2),
                    element(7,Ls,C), replace(C,9,NewDs2,NewDs3),

                    element(7,Ds,D), replace(D,9,Rs,NewRs1),
                    element(8,Ds,E), replace(E,6,NewRs1,NewRs2),
                    element(9,Ds,F), replace(F,3,NewRs2,NewRs3),

                    element(9,Rs,G), replace(G,3,Us,NewUs1),
                    element(6,Rs,H), replace(H,2,NewUs1,NewUs2),
                    element(3,Rs,I), replace(I,1,NewUs2,NewUs3),

                    element(3,Us,J), replace(J,1,Ls,NewLs1),
                    element(2,Us,K), replace(K,4,NewLs1,NewLs2),
                    element(1,Us,L), replace(L,7,NewLs2,NewLs3),


                    element(1,Bs,M), replace(M,3,[_,_,_,_,_,_,_,_,_],NewBs1),
                    element(2,Bs,N), replace(N,6,NewBs1,NewBs2),
                    element(3,Bs,O), replace(O,9,NewBs2,NewBs3),
                    element(4,Bs,P), replace(P,2,NewBs3,NewBs4),
                    element(5,Bs,Q), replace(Q,5,NewBs4,NewBs5),
                    element(6,Bs,R), replace(R,8,NewBs5,NewBs6),
                    element(7,Bs,S), replace(S,1,NewBs6,NewBs7),
                    element(8,Bs,T), replace(T,4,NewBs7,NewBs8),
                    element(9,Bs,U), replace(U,7,NewBs8,NewBs9),

                    unchanged(Fs,NewFs3),

                    lists2cube(['Back 1'],NewFs3,NewLs3,NewRs3,
                                 NewUs3,NewDs3,NewBs9,NewCube),!.



pitch1(Cube,NewCube):-
                    cube2lists(Cube,Op,Fs,Ls,Rs,Us,Ds,Bs),

                    element(2,Fs,A), replace(A,2,Us,NewUs1),
                    element(5,Fs,B), replace(B,5,NewUs1,NewUs2),
                    element(8,Fs,C), replace(C,8,NewUs2,NewUs3),

                    element(2,Us,D), replace(D,8,Bs,NewBs1),
                    element(5,Us,E), replace(E,5,NewBs1,NewBs2),
                    element(8,Us,F), replace(F,2,NewBs2,NewBs3),

                    element(8,Bs,G), replace(G,2,Ds,NewDs1),
                    element(5,Bs,H), replace(H,5,NewDs1,NewDs2),
                    element(2,Bs,I), replace(I,8,NewDs2,NewDs3),

                    element(2,Ds,J), replace(J,2,Fs,NewFs1),
                    element(5,Ds,K), replace(K,5,NewFs1,NewFs2),
                    element(8,Ds,L), replace(L,8,NewFs2,NewFs3),

                    unchanged(Ls,NewLs3), unchanged(Rs,NewRs3),

                    lists2cube(['Pitch 1'],NewFs3,NewLs3,NewRs3,
                                 NewUs3,NewDs3,NewBs3,NewCube),!.


yaw1(Cube,NewCube):-
                    cube2lists(Cube,Op,Fs,Ls,Rs,Us,Ds,Bs),

                    element(4,Fs,A), replace(A,4,Ls,NewLs1),
                    element(5,Fs,B), replace(B,5,NewLs1,NewLs2),
                    element(6,Fs,C), replace(C,6,NewLs2,NewLs3),

                    element(4,Ls,D), replace(D,4,Bs,NewBs1),
                    element(5,Ls,E), replace(E,5,NewBs1,NewBs2),
                    element(6,Ls,F), replace(F,6,NewBs2,NewBs3),

                    element(4,Bs,G), replace(G,4,Rs,NewRs1),
                    element(5,Bs,H), replace(H,5,NewRs1,NewRs2),
                    element(6,Bs,I), replace(I,6,NewRs2,NewRs3),

                    element(4,Rs,J), replace(J,4,Fs,NewFs1),
                    element(5,Rs,K), replace(K,5,NewFs1,NewFs2),
                    element(6,Rs,L), replace(L,6,NewFs2,NewFs3),

                    unchanged(Us,NewUs3), unchanged(Ds,NewDs3),

                    lists2cube(['Yaw 1'],NewFs3,NewLs3,NewRs3,
                                 NewUs3,NewDs3,NewBs3,NewCube),!.


roll1(Cube,NewCube):-
                    cube2lists(Cube,Op,Fs,Ls,Rs,Us,Ds,Bs),

                    element(2,Ls,A), replace(A,6,Us,NewUs1),
                    element(5,Ls,B), replace(B,5,NewUs1,NewUs2),
                    element(8,Ls,C), replace(C,4,NewUs2,NewUs3),

                    element(6,Us,D), replace(D,8,Rs,NewRs1),
                    element(5,Us,E), replace(E,5,NewRs1,NewRs2),
                    element(4,Us,F), replace(F,2,NewRs2,NewRs3),

                    element(8,Rs,G), replace(G,4,Ds,NewDs1),
                    element(5,Rs,H), replace(H,5,NewDs1,NewDs2),
                    element(2,Rs,I), replace(I,6,NewDs2,NewDs3),

                    element(4,Ds,J), replace(J,2,Ls,NewLs1),
                    element(5,Ds,K), replace(K,5,NewLs1,NewLs2),
                    element(6,Ds,L), replace(L,8,NewLs2,NewLs3),

                    unchanged(Fs,NewFs3), unchanged(Bs,NewBs3),

                    lists2cube(['Roll 1'],NewFs3,NewLs3,NewRs3,
                                 NewUs3,NewDs3,NewBs3,NewCube),!.



/* One anti-clockwise rotation moves */


front_1(Cube,NewCube):-
                    cube2lists(Cube,Op,Fs,Ls,Rs,Us,Ds,Bs),

                    element(7,Us,A), replace(A,9,Ls,NewLs1),
                    element(8,Us,B), replace(B,6,NewLs1,NewLs2),
                    element(9,Us,C), replace(C,3,NewLs2,NewLs3),

                    element(9,Ls,D), replace(D,3,Ds,NewDs1),
                    element(6,Ls,E), replace(E,2,NewDs1,NewDs2),
                    element(3,Ls,F), replace(F,1,NewDs2,NewDs3),

                    element(3,Ds,G), replace(G,1,Rs,NewRs1),
                    element(2,Ds,H), replace(H,4,NewRs1,NewRs2),
                    element(1,Ds,I), replace(I,7,NewRs2,NewRs3),

                    element(1,Rs,J), replace(J,7,Us,NewUs1),
                    element(4,Rs,K), replace(K,8,NewUs1,NewUs2),
                    element(7,Rs,L), replace(L,9,NewUs2,NewUs3),


                    element(1,Fs,M), replace(M,7,[_,_,_,_,_,_,_,_,_],NewFs1),
                    element(2,Fs,N), replace(N,4,NewFs1,NewFs2),
                    element(3,Fs,O), replace(O,1,NewFs2,NewFs3),
                    element(4,Fs,P), replace(P,8,NewFs3,NewFs4),
                    element(5,Fs,Q), replace(Q,5,NewFs4,NewFs5),
                    element(6,Fs,R), replace(R,2,NewFs5,NewFs6),
                    element(7,Fs,S), replace(S,9,NewFs6,NewFs7),
                    element(8,Fs,T), replace(T,6,NewFs7,NewFs8),
                    element(9,Fs,U), replace(U,3,NewFs8,NewFs9),

                    unchanged(Bs,NewBs3),

                    lists2cube(['Front -1'],NewFs9,NewLs3,NewRs3,
                                 NewUs3,NewDs3,NewBs3,NewCube),!.



left_1(Cube,NewCube):-
                    cube2lists(Cube,Op,Fs,Ls,Rs,Us,Ds,Bs),

                    element(1,Fs,A), replace(A,1,Us,NewUs1),
                    element(4,Fs,B), replace(B,4,NewUs1,NewUs2),
                    element(7,Fs,C), replace(C,7,NewUs2,NewUs3),

                    element(1,Us,D), replace(D,9,Bs,NewBs1),
                    element(4,Us,E), replace(E,6,NewBs1,NewBs2),
                    element(7,Us,F), replace(F,3,NewBs2,NewBs3),

                    element(9,Bs,G), replace(G,1,Ds,NewDs1),
                    element(6,Bs,H), replace(H,4,NewDs1,NewDs2),
                    element(3,Bs,I), replace(I,7,NewDs2,NewDs3),

                    element(1,Ds,J), replace(J,1,Fs,NewFs1),
                    element(4,Ds,K), replace(K,4,NewFs1,NewFs2),
                    element(7,Ds,L), replace(L,7,NewFs2,NewFs3),

                    element(1,Ls,M), replace(M,7,[_,_,_,_,_,_,_,_,_],NewLs1),
                    element(2,Ls,N), replace(N,4,NewLs1,NewLs2),
                    element(3,Ls,O), replace(O,1,NewLs2,NewLs3),
                    element(4,Ls,P), replace(P,8,NewLs3,NewLs4),
                    element(5,Ls,Q), replace(Q,5,NewLs4,NewLs5),
                    element(6,Ls,R), replace(R,2,NewLs5,NewLs6),
                    element(7,Ls,S), replace(S,9,NewLs6,NewLs7),
                    element(8,Ls,T), replace(T,6,NewLs7,NewLs8),
                    element(9,Ls,U), replace(U,3,NewLs8,NewLs9),

                    unchanged(Rs,NewRs3),

                    lists2cube(['Left -1'],NewFs3,NewLs9,NewRs3,
                                 NewUs3,NewDs3,NewBs3,NewCube),!.



right_1(Cube,NewCube):-
                    cube2lists(Cube,Op,Fs,Ls,Rs,Us,Ds,Bs),

                    element(3,Fs,A), replace(A,3,Ds,NewDs1),
                    element(6,Fs,B), replace(B,6,NewDs1,NewDs2),
                    element(9,Fs,C), replace(C,9,NewDs2,NewDs3),

                    element(3,Ds,D), replace(D,7,Bs,NewBs1),
                    element(6,Ds,E), replace(E,4,NewBs1,NewBs2),
                    element(9,Ds,F), replace(F,1,NewBs2,NewBs3),

                    element(7,Bs,G), replace(G,3,Us,NewUs1),
                    element(4,Bs,H), replace(H,6,NewUs1,NewUs2),
                    element(1,Bs,I), replace(I,9,NewUs2,NewUs3),

                    element(3,Us,J), replace(J,3,Fs,NewFs1),
                    element(6,Us,K), replace(K,6,NewFs1,NewFs2),
                    element(9,Us,L), replace(L,9,NewFs2,NewFs3),


                    element(1,Rs,M), replace(M,7,[_,_,_,_,_,_,_,_,_],NewRs1),
                    element(2,Rs,N), replace(N,4,NewRs1,NewRs2),
                    element(3,Rs,O), replace(O,1,NewRs2,NewRs3),
                    element(4,Rs,P), replace(P,8,NewRs3,NewRs4),
                    element(5,Rs,Q), replace(Q,5,NewRs4,NewRs5),
                    element(6,Rs,R), replace(R,2,NewRs5,NewRs6),
                    element(7,Rs,S), replace(S,9,NewRs6,NewRs7),
                    element(8,Rs,T), replace(T,6,NewRs7,NewRs8),
                    element(9,Rs,U), replace(U,3,NewRs8,NewRs9),

                    unchanged(Ls,NewLs3),

                    lists2cube(['Right -1'],NewFs3,NewLs3,NewRs9,
                                 NewUs3,NewDs3,NewBs3,NewCube),!.



upper_1(Cube,NewCube):-
                    cube2lists(Cube,Op,Fs,Ls,Rs,Us,Ds,Bs),

                    element(1,Fs,A), replace(A,1,Rs,NewRs1),
                    element(2,Fs,B), replace(B,2,NewRs1,NewRs2),
                    element(3,Fs,C), replace(C,3,NewRs2,NewRs3),

                    element(1,Rs,D), replace(D,1,Bs,NewBs1),
                    element(2,Rs,E), replace(E,2,NewBs1,NewBs2),
                    element(3,Rs,F), replace(F,3,NewBs2,NewBs3),

                    element(1,Bs,G), replace(G,1,Ls,NewLs1),
                    element(2,Bs,H), replace(H,2,NewLs1,NewLs2),
                    element(3,Bs,I), replace(I,3,NewLs2,NewLs3),

                    element(1,Ls,J), replace(J,1,Fs,NewFs1),
                    element(2,Ls,K), replace(K,2,NewFs1,NewFs2),
                    element(3,Ls,L), replace(L,3,NewFs2,NewFs3),


                    element(1,Us,M), replace(M,7,[_,_,_,_,_,_,_,_,_],NewUs1),
                    element(2,Us,N), replace(N,4,NewUs1,NewUs2),
                    element(3,Us,O), replace(O,1,NewUs2,NewUs3),
                    element(4,Us,P), replace(P,8,NewUs3,NewUs4),
                    element(5,Us,Q), replace(Q,5,NewUs4,NewUs5),
                    element(6,Us,R), replace(R,2,NewUs5,NewUs6),
                    element(7,Us,S), replace(S,9,NewUs6,NewUs7),
                    element(8,Us,T), replace(T,6,NewUs7,NewUs8),
                    element(9,Us,U), replace(U,3,NewUs8,NewUs9),

                    unchanged(Ds,NewDs3),

                    lists2cube(['Upper -1'],NewFs3,NewLs3,NewRs3,
                                 NewUs9,NewDs3,NewBs3,NewCube),!.

down_1(Cube,NewCube):-
                    cube2lists(Cube,Op,Fs,Ls,Rs,Us,Ds,Bs),

                    element(7,Fs,A), replace(A,7,Ls,NewLs1),
                    element(8,Fs,B), replace(B,8,NewLs1,NewLs2),
                    element(9,Fs,C), replace(C,9,NewLs2,NewLs3),

                    element(7,Ls,D), replace(D,7,Bs,NewBs1),
                    element(8,Ls,E), replace(E,8,NewBs1,NewBs2),
                    element(9,Ls,F), replace(F,9,NewBs2,NewBs3),

                    element(7,Bs,G), replace(G,7,Rs,NewRs1),
                    element(8,Bs,H), replace(H,8,NewRs1,NewRs2),
                    element(9,Bs,I), replace(I,9,NewRs2,NewRs3),

                    element(7,Rs,J), replace(J,7,Fs,NewFs1),
                    element(8,Rs,K), replace(K,8,NewFs1,NewFs2),
                    element(9,Rs,L), replace(L,9,NewFs2,NewFs3),


                    element(1,Ds,M), replace(M,7,[_,_,_,_,_,_,_,_,_],NewDs1),
                    element(2,Ds,N), replace(N,4,NewDs1,NewDs2),
                    element(3,Ds,O), replace(O,1,NewDs2,NewDs3),
                    element(4,Ds,P), replace(P,8,NewDs3,NewDs4),
                    element(5,Ds,Q), replace(Q,5,NewDs4,NewDs5),
                    element(6,Ds,R), replace(R,2,NewDs5,NewDs6),
                    element(7,Ds,S), replace(S,9,NewDs6,NewDs7),
                    element(8,Ds,T), replace(T,6,NewDs7,NewDs8),
                    element(9,Ds,U), replace(U,3,NewDs8,NewDs9),

                    unchanged(Us,NewUs3),

                    lists2cube(['Down -1'],NewFs3,NewLs3,NewRs3,
                                 NewUs3,NewDs9,NewBs3,NewCube),!.


back_1(Cube,NewCube):-
                    cube2lists(Cube,Op,Fs,Ls,Rs,Us,Ds,Bs),

                    element(1,Us,A), replace(A,3,Rs,NewRs1),
                    element(2,Us,B), replace(B,6,NewRs1,NewRs2),
                    element(3,Us,C), replace(C,9,NewRs2,NewRs3),

                    element(3,Rs,D), replace(D,9,Ds,NewDs1),
                    element(6,Rs,E), replace(E,8,NewDs1,NewDs2),
                    element(9,Rs,F), replace(F,7,NewDs2,NewDs3),

                    element(9,Ds,G), replace(G,7,Ls,NewLs1),
                    element(8,Ds,H), replace(H,4,NewLs1,NewLs2),
                    element(7,Ds,I), replace(I,1,NewLs2,NewLs3),

                    element(7,Ls,J), replace(J,1,Us,NewUs1),
                    element(4,Ls,K), replace(K,2,NewUs1,NewUs2),
                    element(1,Ls,L), replace(L,3,NewUs2,NewUs3),


                    element(1,Bs,M), replace(M,7,[_,_,_,_,_,_,_,_,_],NewBs1),
                    element(2,Bs,N), replace(N,4,NewBs1,NewBs2),
                    element(3,Bs,O), replace(O,1,NewBs2,NewBs3),
                    element(4,Bs,P), replace(P,8,NewBs3,NewBs4),
                    element(5,Bs,Q), replace(Q,5,NewBs4,NewBs5),
                    element(6,Bs,R), replace(R,2,NewBs5,NewBs6),
                    element(7,Bs,S), replace(S,9,NewBs6,NewBs7),
                    element(8,Bs,T), replace(T,6,NewBs7,NewBs8),
                    element(9,Bs,U), replace(U,3,NewBs8,NewBs9),

                    unchanged(Fs,NewFs3),

                    lists2cube(['Back -1'],NewFs3,NewLs3,NewRs3,
                                 NewUs3,NewDs3,NewBs9,NewCube),!.
pitch_1(Cube,NewCube):-
                    cube2lists(Cube,Op,Fs,Ls,Rs,Us,Ds,Bs),

                    element(2,Fs,A), replace(A,2,Ds,NewDs1),
                    element(5,Fs,B), replace(B,5,NewDs1,NewDs2),
                    element(8,Fs,C), replace(C,8,NewDs2,NewDs3),

                    element(2,Ds,D), replace(D,8,Bs,NewBs1),
                    element(5,Ds,E), replace(E,5,NewBs1,NewBs2),
                    element(8,Ds,F), replace(F,2,NewBs2,NewBs3),

                    element(8,Bs,G), replace(G,2,Us,NewUs1),
                    element(5,Bs,H), replace(H,5,NewUs1,NewUs2),
                    element(2,Bs,I), replace(I,8,NewUs2,NewUs3),

                    element(2,Us,J), replace(J,2,Fs,NewFs1),
                    element(5,Us,K), replace(K,5,NewFs1,NewFs2),
                    element(8,Us,L), replace(L,8,NewFs2,NewFs3),

                    unchanged(Ls,NewLs3), unchanged(Rs,NewRs3),

                    lists2cube(['Pitch -1'],NewFs3,NewLs3,NewRs3,
                                 NewUs3,NewDs3,NewBs3,NewCube),!.

yaw_1(Cube,NewCube):-
                    cube2lists(Cube,Op,Fs,Ls,Rs,Us,Ds,Bs),

                    element(4,Fs,A), replace(A,4,Rs,NewRs1),
                    element(5,Fs,B), replace(B,5,NewRs1,NewRs2),
                    element(6,Fs,C), replace(C,6,NewRs2,NewRs3),

                    element(4,Rs,D), replace(D,4,Bs,NewBs1),
                    element(5,Rs,E), replace(E,5,NewBs1,NewBs2),
                    element(6,Rs,F), replace(F,6,NewBs2,NewBs3),

                    element(4,Bs,G), replace(G,4,Ls,NewLs1),
                    element(5,Bs,H), replace(H,5,NewLs1,NewLs2),
                    element(6,Bs,I), replace(I,6,NewLs2,NewLs3),

                    element(4,Ls,J), replace(J,4,Fs,NewFs1),
                    element(5,Ls,K), replace(K,5,NewFs1,NewFs2),
                    element(6,Ls,L), replace(L,6,NewFs2,NewFs3),

                    unchanged(Us,NewUs3), unchanged(Ds,NewDs3),

                    lists2cube(['Yaw -1'],NewFs3,NewLs3,NewRs3,
                                 NewUs3,NewDs3,NewBs3,NewCube),!.


roll_1(Cube,NewCube):-
                    cube2lists(Cube,Op,Fs,Ls,Rs,Us,Ds,Bs),

                    element(4,Us,A), replace(A,8,Ls,NewLs1),
                    element(5,Us,B), replace(B,5,NewLs1,NewLs2),
                    element(6,Us,C), replace(C,2,NewLs2,NewLs3),

                    element(8,Ls,D), replace(D,6,Ds,NewDs1),
                    element(5,Ls,E), replace(E,5,NewDs1,NewDs2),
                    element(2,Ls,F), replace(F,4,NewDs2,NewDs3),

                    element(6,Ds,G), replace(G,2,Rs,NewRs1),
                    element(5,Ds,H), replace(H,5,NewRs1,NewRs2),
                    element(4,Ds,I), replace(I,8,NewRs2,NewRs3),

                    element(2,Rs,J), replace(J,4,Us,NewUs1),
                    element(5,Rs,K), replace(K,5,NewUs1,NewUs2),
                    element(8,Rs,L), replace(L,6,NewUs2,NewUs3),

                    unchanged(Fs,NewFs3), unchanged(Bs,NewBs3),

                    lists2cube(['Roll -1'],NewFs3,NewLs3,NewRs3,
                                 NewUs3,NewDs3,NewBs3,NewCube),!.


/***********************************************************************/
/* ---------------- SEARCH STRATEGY IMPLEMENTATION --------------------*/
/***********************************************************************/

/* DEPTH-FIRST ITERATIVE DEEPENING (DFID) SEARCH ALGORITHM */

/* Implementation of the iterative deepening depth-first search algorithm.
   Author : Ken Williams
   Date : Jan 10th - 29th 1993.
   depth-first search program, developed for RUBIK.PL,
   depthfirst(Node, Path, Solution, Maxdepth, GoalNode,SearchType):
      Node is the state of the cube from where the search will be starting.
      Path holds the nodes of the current path being investigated by
           the search.
      Solution is a path, not longer than Maxdepth from Node to GoalState.
   SearchType indicates the type of search to be undertaken and can be one
   of three kinds;
       ['Face moves'], ['Slice moves'] or ['All moves']
    the type of search to be undertaken has a major effect on the nodes
    that are generated in the 's' procedure since sometimes only a subset
    of all the possible moves need be considered in order to achieve a
    subgoal state.

    Nodes for the search are generated by the 's' procedure.

    This search is ACYCLIC. When each new node is generated the
    routine uses the is_member function to check if it has already
    visited the new node. If it has, there is no point in going any
    further, the node is discarded, if not then the node is expanded
    and the search continues in the usual way.

    Solve calls depthfirst recursively, increasing the value of
    Maxdepth each time. This has the effect of increasing the
    level penetrated into the search space by the DFID with each call.


*********************************************************************/


solve(Node,Sol,Maxdepth,GoalNode,SearchType):-
   depthfirst(Node,[Node],Sol,Maxdepth,GoalNode,SearchType)
   ;
 (   IncMax is Maxdepth +1,
    write([the,value,of,maxdepth,now,is,IncMax]),nl,
    solve(Node,Sol,IncMax,GoalNode,SearchType)), ! .


depthfirst(Node,Path,[Node|Path],_,GoalNode,_):-
                 matching_lists(Node,GoalNode),!.

depthfirst(Node,Path,Sol,Maxdepth,GoalNode,SearchType):-
           Maxdepth > 0,
           s(Node,NewNode,Cost,SearchType),
           not(is_member(NewNode,Path)),
                                 /* check NewNode not member of Path */
           Max1 is Maxdepth -1,
           depthfirst(NewNode,[NewNode|Path],Sol,Max1,GoalNode,SearchType).


is_member([_|A],[]):-fail.
is_member([_|A],[[_|A]|L]).
is_member(A,[H|L]):-is_member(A,L).


/********************************************************************/

/* Expand chosen-node.
   s(Node,SuccessorNode,Cost, Type), all arcs cost 1   */

s(Cube,NewCube,1,Type):-

(Type = ['Face moves'], nl,write('Now searching Face moves.'),
  (  front1(Cube,NewCube);
     right1(Cube,NewCube);
     left1(Cube,NewCube);
     upper1(Cube,NewCube);
     down1 (Cube,NewCube);
     back1(Cube,NewCube);
     front_1(Cube,NewCube);
     right_1(Cube,NewCube);
     left_1 (Cube,NewCube);
     upper_1(Cube,NewCube);
     down_1 (Cube,NewCube);
     back_1 (Cube,NewCube)  ))
     ;
(Type = ['Slice moves'],nl,write('Now searching Slice moves.'),
  (  pitch1(Cube,NewCube);
     yaw1  (Cube,NewCube);
     roll1(Cube,NewCube);
     pitch_1(Cube,NewCube);
     yaw_1  (Cube,NewCube);
     roll_1 (Cube,NewCube) ))
     ;
(Type = ['All moves'],nl,write('Now searching all possible moves.'),
  (  front1(Cube,NewCube);
     right1(Cube,NewCube);
     left1(Cube,NewCube);
     upper1(Cube,NewCube);
     down1 (Cube,NewCube);
     back1(Cube,NewCube);
     pitch1(Cube,NewCube);
     yaw1  (Cube,NewCube);
     roll1(Cube,NewCube);
     front_1(Cube,NewCube);
     right_1(Cube,NewCube);
     left_1 (Cube,NewCube);
     upper_1(Cube,NewCube);
     down_1 (Cube,NewCube);
     back_1 (Cube,NewCube);
     pitch_1(Cube,NewCube);
     yaw_1  (Cube,NewCube);
     roll_1 (Cube,NewCube) )).


/*                      END OF PROGRAM

                                           KEN WILLIAMS        */
